<?xml version="1.0" standalone="no"?>
<!DOCTYPE svg PUBLIC "-//W3C//DTD SVG 20010904//EN"
 "http://www.w3.org/TR/2001/REC-SVG-20010904/DTD/svg10.dtd">
<svg version="1.0" xmlns="http://www.w3.org/2000/svg"
 width="700.000000pt" height="700.000000pt" viewBox="0 0 700.000000 700.000000"
 preserveAspectRatio="xMidYMid meet">
<metadata>
Created by potrace 1.14, written by Peter Selinger 2001-2017
</metadata>
<g transform="translate(0.000000,700.000000) scale(0.100000,-0.100000)"
fill="#000000" stroke="none">
<path d="M982 6018 l-982 -981 0 -2519 0 -2518 3500 0 3500 0 0 3500 0 3500
-2518 0 -2519 0 -981 -982z m5173 144 c8 -2 11 -818 10 -2664 l0 -2663 -2665
0 -2665 0 -1 1929 0 1928 737 737 737 737 1919 -1 c1055 -1 1923 -3 1928 -3z"/>
</g>
</svg>
